<?xml version="1.0" standalone="no"?>
<!DOCTYPE svg PUBLIC "-//W3C//DTD SVG 1.1//EN" "http://www.w3.org/Graphics/SVG/1.1/DTD/svg11.dtd">
<svg width="1798px" height="3210px" version="1.1" xmlns="http://www.w3.org/2000/svg">

<!-- This file is a systemd-analyze SVG file. It is best rendered in a   -->
<!-- browser such as Chrome, Chromium or Firefox. Other applications     -->
<!-- that render these files properly but much slower are ImageMagick,   -->
<!-- gimp, inkscape, etc. To display the files on your system, just      -->
<!-- point your browser to this file.                                    -->

<!-- This plot was generated by systemd-analyze version 241              -->

<defs>
  <style type="text/css">
    <![CDATA[
      rect       { stroke-width: 1; stroke-opacity: 0; }
      rect.background   { fill: rgb(255,255,255); }
      rect.activating   { fill: rgb(255,0,0); fill-opacity: 0.7; }
      rect.active       { fill: rgb(200,150,150); fill-opacity: 0.7; }
      rect.deactivating { fill: rgb(150,100,100); fill-opacity: 0.7; }
      rect.kernel       { fill: rgb(150,150,150); fill-opacity: 0.7; }
      rect.initrd       { fill: rgb(150,150,150); fill-opacity: 0.7; }
      rect.firmware     { fill: rgb(150,150,150); fill-opacity: 0.7; }
      rect.loader       { fill: rgb(150,150,150); fill-opacity: 0.7; }
      rect.userspace    { fill: rgb(150,150,150); fill-opacity: 0.7; }
      rect.security     { fill: rgb(144,238,144); fill-opacity: 0.7; }
      rect.generators   { fill: rgb(102,204,255); fill-opacity: 0.7; }
      rect.unitsload    { fill: rgb( 82,184,255); fill-opacity: 0.7; }
      rect.box   { fill: rgb(240,240,240); stroke: rgb(192,192,192); }
      line       { stroke: rgb(64,64,64); stroke-width: 1; }
//    line.sec1  { }
      line.sec5  { stroke-width: 2; }
      line.sec01 { stroke: rgb(224,224,224); stroke-width: 1; }
      text       { font-family: Verdana, Helvetica; font-size: 14px; }
      text.left  { font-family: Verdana, Helvetica; font-size: 14px; text-anchor: start; }
      text.right { font-family: Verdana, Helvetica; font-size: 14px; text-anchor: end; }
      text.sec   { font-size: 10px; }
    ]]>
   </style>
</defs>

<rect class="background" width="100%" height="100%" />
<text x="20" y="50">Startup finished in 3.997s (kernel) + 13.178s (userspace) = 17.176s 
graphical.target reached after 13.118s in userspace</text><text x="20" y="30">Debian GNU/Linux 10 (buster) taurus-4.lyon.grid5000.fr (Linux 4.19.0-13-amd64 #1 SMP Debian 4.19.160-2 (2020-11-28)) x86-64 </text><g transform="translate(20.000,100)">
<rect class="box" x="0" y="0" width="1717.675" height="2960.000" />
  <line class="sec5" x1="0.000" y1="0" x2="0.000" y2="2960.000" />
  <text class="sec" x="0.000" y="-5.000" >0.0s</text>
  <line class="sec01" x1="10.000" y1="0" x2="10.000" y2="2960.000" />
  <line class="sec01" x1="20.000" y1="0" x2="20.000" y2="2960.000" />
  <line class="sec01" x1="30.000" y1="0" x2="30.000" y2="2960.000" />
  <line class="sec01" x1="40.000" y1="0" x2="40.000" y2="2960.000" />
  <line class="sec01" x1="50.000" y1="0" x2="50.000" y2="2960.000" />
  <line class="sec01" x1="60.000" y1="0" x2="60.000" y2="2960.000" />
  <line class="sec01" x1="70.000" y1="0" x2="70.000" y2="2960.000" />
  <line class="sec01" x1="80.000" y1="0" x2="80.000" y2="2960.000" />
  <line class="sec01" x1="90.000" y1="0" x2="90.000" y2="2960.000" />
  <line class="sec1" x1="100.000" y1="0" x2="100.000" y2="2960.000" />
  <text class="sec" x="100.000" y="-5.000" >1.0s</text>
  <line class="sec01" x1="110.000" y1="0" x2="110.000" y2="2960.000" />
  <line class="sec01" x1="120.000" y1="0" x2="120.000" y2="2960.000" />
  <line class="sec01" x1="130.000" y1="0" x2="130.000" y2="2960.000" />
  <line class="sec01" x1="140.000" y1="0" x2="140.000" y2="2960.000" />
  <line class="sec01" x1="150.000" y1="0" x2="150.000" y2="2960.000" />
  <line class="sec01" x1="160.000" y1="0" x2="160.000" y2="2960.000" />
  <line class="sec01" x1="170.000" y1="0" x2="170.000" y2="2960.000" />
  <line class="sec01" x1="180.000" y1="0" x2="180.000" y2="2960.000" />
  <line class="sec01" x1="190.000" y1="0" x2="190.000" y2="2960.000" />
  <line class="sec1" x1="200.000" y1="0" x2="200.000" y2="2960.000" />
  <text class="sec" x="200.000" y="-5.000" >2.0s</text>
  <line class="sec01" x1="210.000" y1="0" x2="210.000" y2="2960.000" />
  <line class="sec01" x1="220.000" y1="0" x2="220.000" y2="2960.000" />
  <line class="sec01" x1="230.000" y1="0" x2="230.000" y2="2960.000" />
  <line class="sec01" x1="240.000" y1="0" x2="240.000" y2="2960.000" />
  <line class="sec01" x1="250.000" y1="0" x2="250.000" y2="2960.000" />
  <line class="sec01" x1="260.000" y1="0" x2="260.000" y2="2960.000" />
  <line class="sec01" x1="270.000" y1="0" x2="270.000" y2="2960.000" />
  <line class="sec01" x1="280.000" y1="0" x2="280.000" y2="2960.000" />
  <line class="sec01" x1="290.000" y1="0" x2="290.000" y2="2960.000" />
  <line class="sec1" x1="300.000" y1="0" x2="300.000" y2="2960.000" />
  <text class="sec" x="300.000" y="-5.000" >3.0s</text>
  <line class="sec01" x1="310.000" y1="0" x2="310.000" y2="2960.000" />
  <line class="sec01" x1="320.000" y1="0" x2="320.000" y2="2960.000" />
  <line class="sec01" x1="330.000" y1="0" x2="330.000" y2="2960.000" />
  <line class="sec01" x1="340.000" y1="0" x2="340.000" y2="2960.000" />
  <line class="sec01" x1="350.000" y1="0" x2="350.000" y2="2960.000" />
  <line class="sec01" x1="360.000" y1="0" x2="360.000" y2="2960.000" />
  <line class="sec01" x1="370.000" y1="0" x2="370.000" y2="2960.000" />
  <line class="sec01" x1="380.000" y1="0" x2="380.000" y2="2960.000" />
  <line class="sec01" x1="390.000" y1="0" x2="390.000" y2="2960.000" />
  <line class="sec1" x1="400.000" y1="0" x2="400.000" y2="2960.000" />
  <text class="sec" x="400.000" y="-5.000" >4.0s</text>
  <line class="sec01" x1="410.000" y1="0" x2="410.000" y2="2960.000" />
  <line class="sec01" x1="420.000" y1="0" x2="420.000" y2="2960.000" />
  <line class="sec01" x1="430.000" y1="0" x2="430.000" y2="2960.000" />
  <line class="sec01" x1="440.000" y1="0" x2="440.000" y2="2960.000" />
  <line class="sec01" x1="450.000" y1="0" x2="450.000" y2="2960.000" />
  <line class="sec01" x1="460.000" y1="0" x2="460.000" y2="2960.000" />
  <line class="sec01" x1="470.000" y1="0" x2="470.000" y2="2960.000" />
  <line class="sec01" x1="480.000" y1="0" x2="480.000" y2="2960.000" />
  <line class="sec01" x1="490.000" y1="0" x2="490.000" y2="2960.000" />
  <line class="sec5" x1="500.000" y1="0" x2="500.000" y2="2960.000" />
  <text class="sec" x="500.000" y="-5.000" >5.0s</text>
  <line class="sec01" x1="510.000" y1="0" x2="510.000" y2="2960.000" />
  <line class="sec01" x1="520.000" y1="0" x2="520.000" y2="2960.000" />
  <line class="sec01" x1="530.000" y1="0" x2="530.000" y2="2960.000" />
  <line class="sec01" x1="540.000" y1="0" x2="540.000" y2="2960.000" />
  <line class="sec01" x1="550.000" y1="0" x2="550.000" y2="2960.000" />
  <line class="sec01" x1="560.000" y1="0" x2="560.000" y2="2960.000" />
  <line class="sec01" x1="570.000" y1="0" x2="570.000" y2="2960.000" />
  <line class="sec01" x1="580.000" y1="0" x2="580.000" y2="2960.000" />
  <line class="sec01" x1="590.000" y1="0" x2="590.000" y2="2960.000" />
  <line class="sec1" x1="600.000" y1="0" x2="600.000" y2="2960.000" />
  <text class="sec" x="600.000" y="-5.000" >6.0s</text>
  <line class="sec01" x1="610.000" y1="0" x2="610.000" y2="2960.000" />
  <line class="sec01" x1="620.000" y1="0" x2="620.000" y2="2960.000" />
  <line class="sec01" x1="630.000" y1="0" x2="630.000" y2="2960.000" />
  <line class="sec01" x1="640.000" y1="0" x2="640.000" y2="2960.000" />
  <line class="sec01" x1="650.000" y1="0" x2="650.000" y2="2960.000" />
  <line class="sec01" x1="660.000" y1="0" x2="660.000" y2="2960.000" />
  <line class="sec01" x1="670.000" y1="0" x2="670.000" y2="2960.000" />
  <line class="sec01" x1="680.000" y1="0" x2="680.000" y2="2960.000" />
  <line class="sec01" x1="690.000" y1="0" x2="690.000" y2="2960.000" />
  <line class="sec1" x1="700.000" y1="0" x2="700.000" y2="2960.000" />
  <text class="sec" x="700.000" y="-5.000" >7.0s</text>
  <line class="sec01" x1="710.000" y1="0" x2="710.000" y2="2960.000" />
  <line class="sec01" x1="720.000" y1="0" x2="720.000" y2="2960.000" />
  <line class="sec01" x1="730.000" y1="0" x2="730.000" y2="2960.000" />
  <line class="sec01" x1="740.000" y1="0" x2="740.000" y2="2960.000" />
  <line class="sec01" x1="750.000" y1="0" x2="750.000" y2="2960.000" />
  <line class="sec01" x1="760.000" y1="0" x2="760.000" y2="2960.000" />
  <line class="sec01" x1="770.000" y1="0" x2="770.000" y2="2960.000" />
  <line class="sec01" x1="780.000" y1="0" x2="780.000" y2="2960.000" />
  <line class="sec01" x1="790.000" y1="0" x2="790.000" y2="2960.000" />
  <line class="sec1" x1="800.000" y1="0" x2="800.000" y2="2960.000" />
  <text class="sec" x="800.000" y="-5.000" >8.0s</text>
  <line class="sec01" x1="810.000" y1="0" x2="810.000" y2="2960.000" />
  <line class="sec01" x1="820.000" y1="0" x2="820.000" y2="2960.000" />
  <line class="sec01" x1="830.000" y1="0" x2="830.000" y2="2960.000" />
  <line class="sec01" x1="840.000" y1="0" x2="840.000" y2="2960.000" />
  <line class="sec01" x1="850.000" y1="0" x2="850.000" y2="2960.000" />
  <line class="sec01" x1="860.000" y1="0" x2="860.000" y2="2960.000" />
  <line class="sec01" x1="870.000" y1="0" x2="870.000" y2="2960.000" />
  <line class="sec01" x1="880.000" y1="0" x2="880.000" y2="2960.000" />
  <line class="sec01" x1="890.000" y1="0" x2="890.000" y2="2960.000" />
  <line class="sec1" x1="900.000" y1="0" x2="900.000" y2="2960.000" />
  <text class="sec" x="900.000" y="-5.000" >9.0s</text>
  <line class="sec01" x1="910.000" y1="0" x2="910.000" y2="2960.000" />
  <line class="sec01" x1="920.000" y1="0" x2="920.000" y2="2960.000" />
  <line class="sec01" x1="930.000" y1="0" x2="930.000" y2="2960.000" />
  <line class="sec01" x1="940.000" y1="0" x2="940.000" y2="2960.000" />
  <line class="sec01" x1="950.000" y1="0" x2="950.000" y2="2960.000" />
  <line class="sec01" x1="960.000" y1="0" x2="960.000" y2="2960.000" />
  <line class="sec01" x1="970.000" y1="0" x2="970.000" y2="2960.000" />
  <line class="sec01" x1="980.000" y1="0" x2="980.000" y2="2960.000" />
  <line class="sec01" x1="990.000" y1="0" x2="990.000" y2="2960.000" />
  <line class="sec5" x1="1000.000" y1="0" x2="1000.000" y2="2960.000" />
  <text class="sec" x="1000.000" y="-5.000" >10.0s</text>
  <line class="sec01" x1="1010.000" y1="0" x2="1010.000" y2="2960.000" />
  <line class="sec01" x1="1020.000" y1="0" x2="1020.000" y2="2960.000" />
  <line class="sec01" x1="1030.000" y1="0" x2="1030.000" y2="2960.000" />
  <line class="sec01" x1="1040.000" y1="0" x2="1040.000" y2="2960.000" />
  <line class="sec01" x1="1050.000" y1="0" x2="1050.000" y2="2960.000" />
  <line class="sec01" x1="1060.000" y1="0" x2="1060.000" y2="2960.000" />
  <line class="sec01" x1="1070.000" y1="0" x2="1070.000" y2="2960.000" />
  <line class="sec01" x1="1080.000" y1="0" x2="1080.000" y2="2960.000" />
  <line class="sec01" x1="1090.000" y1="0" x2="1090.000" y2="2960.000" />
  <line class="sec1" x1="1100.000" y1="0" x2="1100.000" y2="2960.000" />
  <text class="sec" x="1100.000" y="-5.000" >11.0s</text>
  <line class="sec01" x1="1110.000" y1="0" x2="1110.000" y2="2960.000" />
  <line class="sec01" x1="1120.000" y1="0" x2="1120.000" y2="2960.000" />
  <line class="sec01" x1="1130.000" y1="0" x2="1130.000" y2="2960.000" />
  <line class="sec01" x1="1140.000" y1="0" x2="1140.000" y2="2960.000" />
  <line class="sec01" x1="1150.000" y1="0" x2="1150.000" y2="2960.000" />
  <line class="sec01" x1="1160.000" y1="0" x2="1160.000" y2="2960.000" />
  <line class="sec01" x1="1170.000" y1="0" x2="1170.000" y2="2960.000" />
  <line class="sec01" x1="1180.000" y1="0" x2="1180.000" y2="2960.000" />
  <line class="sec01" x1="1190.000" y1="0" x2="1190.000" y2="2960.000" />
  <line class="sec1" x1="1200.000" y1="0" x2="1200.000" y2="2960.000" />
  <text class="sec" x="1200.000" y="-5.000" >12.0s</text>
  <line class="sec01" x1="1210.000" y1="0" x2="1210.000" y2="2960.000" />
  <line class="sec01" x1="1220.000" y1="0" x2="1220.000" y2="2960.000" />
  <line class="sec01" x1="1230.000" y1="0" x2="1230.000" y2="2960.000" />
  <line class="sec01" x1="1240.000" y1="0" x2="1240.000" y2="2960.000" />
  <line class="sec01" x1="1250.000" y1="0" x2="1250.000" y2="2960.000" />
  <line class="sec01" x1="1260.000" y1="0" x2="1260.000" y2="2960.000" />
  <line class="sec01" x1="1270.000" y1="0" x2="1270.000" y2="2960.000" />
  <line class="sec01" x1="1280.000" y1="0" x2="1280.000" y2="2960.000" />
  <line class="sec01" x1="1290.000" y1="0" x2="1290.000" y2="2960.000" />
  <line class="sec1" x1="1300.000" y1="0" x2="1300.000" y2="2960.000" />
  <text class="sec" x="1300.000" y="-5.000" >13.0s</text>
  <line class="sec01" x1="1310.000" y1="0" x2="1310.000" y2="2960.000" />
  <line class="sec01" x1="1320.000" y1="0" x2="1320.000" y2="2960.000" />
  <line class="sec01" x1="1330.000" y1="0" x2="1330.000" y2="2960.000" />
  <line class="sec01" x1="1340.000" y1="0" x2="1340.000" y2="2960.000" />
  <line class="sec01" x1="1350.000" y1="0" x2="1350.000" y2="2960.000" />
  <line class="sec01" x1="1360.000" y1="0" x2="1360.000" y2="2960.000" />
  <line class="sec01" x1="1370.000" y1="0" x2="1370.000" y2="2960.000" />
  <line class="sec01" x1="1380.000" y1="0" x2="1380.000" y2="2960.000" />
  <line class="sec01" x1="1390.000" y1="0" x2="1390.000" y2="2960.000" />
  <line class="sec1" x1="1400.000" y1="0" x2="1400.000" y2="2960.000" />
  <text class="sec" x="1400.000" y="-5.000" >14.0s</text>
  <line class="sec01" x1="1410.000" y1="0" x2="1410.000" y2="2960.000" />
  <line class="sec01" x1="1420.000" y1="0" x2="1420.000" y2="2960.000" />
  <line class="sec01" x1="1430.000" y1="0" x2="1430.000" y2="2960.000" />
  <line class="sec01" x1="1440.000" y1="0" x2="1440.000" y2="2960.000" />
  <line class="sec01" x1="1450.000" y1="0" x2="1450.000" y2="2960.000" />
  <line class="sec01" x1="1460.000" y1="0" x2="1460.000" y2="2960.000" />
  <line class="sec01" x1="1470.000" y1="0" x2="1470.000" y2="2960.000" />
  <line class="sec01" x1="1480.000" y1="0" x2="1480.000" y2="2960.000" />
  <line class="sec01" x1="1490.000" y1="0" x2="1490.000" y2="2960.000" />
  <line class="sec5" x1="1500.000" y1="0" x2="1500.000" y2="2960.000" />
  <text class="sec" x="1500.000" y="-5.000" >15.0s</text>
  <line class="sec01" x1="1510.000" y1="0" x2="1510.000" y2="2960.000" />
  <line class="sec01" x1="1520.000" y1="0" x2="1520.000" y2="2960.000" />
  <line class="sec01" x1="1530.000" y1="0" x2="1530.000" y2="2960.000" />
  <line class="sec01" x1="1540.000" y1="0" x2="1540.000" y2="2960.000" />
  <line class="sec01" x1="1550.000" y1="0" x2="1550.000" y2="2960.000" />
  <line class="sec01" x1="1560.000" y1="0" x2="1560.000" y2="2960.000" />
  <line class="sec01" x1="1570.000" y1="0" x2="1570.000" y2="2960.000" />
  <line class="sec01" x1="1580.000" y1="0" x2="1580.000" y2="2960.000" />
  <line class="sec01" x1="1590.000" y1="0" x2="1590.000" y2="2960.000" />
  <line class="sec1" x1="1600.000" y1="0" x2="1600.000" y2="2960.000" />
  <text class="sec" x="1600.000" y="-5.000" >16.0s</text>
  <line class="sec01" x1="1610.000" y1="0" x2="1610.000" y2="2960.000" />
  <line class="sec01" x1="1620.000" y1="0" x2="1620.000" y2="2960.000" />
  <line class="sec01" x1="1630.000" y1="0" x2="1630.000" y2="2960.000" />
  <line class="sec01" x1="1640.000" y1="0" x2="1640.000" y2="2960.000" />
  <line class="sec01" x1="1650.000" y1="0" x2="1650.000" y2="2960.000" />
  <line class="sec01" x1="1660.000" y1="0" x2="1660.000" y2="2960.000" />
  <line class="sec01" x1="1670.000" y1="0" x2="1670.000" y2="2960.000" />
  <line class="sec01" x1="1680.000" y1="0" x2="1680.000" y2="2960.000" />
  <line class="sec01" x1="1690.000" y1="0" x2="1690.000" y2="2960.000" />
  <line class="sec1" x1="1700.000" y1="0" x2="1700.000" y2="2960.000" />
  <text class="sec" x="1700.000" y="-5.000" >17.0s</text>
  <line class="sec01" x1="1710.000" y1="0" x2="1710.000" y2="2960.000" />
  <rect class="kernel" x="0.000" y="0.000" width="399.778" height="19.000" />
  <text class="left" x="5.000" y="14.000">kernel</text>
  <rect class="active" x="399.778" y="20.000" width="1317.897" height="19.000" />
  <rect class="security" x="401.416" y="20.000" width="0.060" height="19.000" />
  <rect class="generators" x="420.761" y="20.000" width="10.042" height="19.000" />
  <rect class="unitsload" x="430.938" y="20.000" width="14.624" height="19.000" />
  <text class="left" x="404.778" y="34.000">systemd</text>
  <rect class="activating" x="445.612" y="40.000" width="0.000" height="19.000" />
  <rect class="active" x="445.612" y="40.000" width="1272.063" height="19.000" />
  <rect class="deactivating" x="1717.675" y="40.000" width="0.000" height="19.000" />
  <text class="left" x="450.612" y="54.000">-.slice</text>
  <rect class="activating" x="445.613" y="60.000" width="0.000" height="19.000" />
  <rect class="active" x="445.613" y="60.000" width="1272.062" height="19.000" />
  <rect class="deactivating" x="1717.675" y="60.000" width="0.000" height="19.000" />
  <text class="left" x="450.613" y="74.000">init.scope</text>
  <rect class="activating" x="445.614" y="80.000" width="0.000" height="19.000" />
  <rect class="active" x="445.614" y="80.000" width="1272.061" height="19.000" />
  <rect class="deactivating" x="1717.675" y="80.000" width="0.000" height="19.000" />
  <text class="left" x="450.614" y="94.000">system.slice</text>
  <rect class="activating" x="445.615" y="100.000" width="0.000" height="19.000" />
  <rect class="active" x="445.615" y="100.000" width="1272.060" height="19.000" />
  <rect class="deactivating" x="1717.675" y="100.000" width="0.000" height="19.000" />
  <text class="left" x="450.615" y="114.000">-.mount</text>
  <rect class="activating" x="445.620" y="120.000" width="72.717" height="19.000" />
  <rect class="active" x="518.337" y="120.000" width="1199.338" height="19.000" />
  <rect class="deactivating" x="1717.675" y="120.000" width="0.000" height="19.000" />
  <text class="left" x="450.620" y="134.000">dev-sda3.device (727ms)</text>
  <rect class="activating" x="445.835" y="140.000" width="0.000" height="19.000" />
  <rect class="active" x="445.835" y="140.000" width="1271.840" height="19.000" />
  <rect class="deactivating" x="1717.675" y="140.000" width="0.000" height="19.000" />
  <text class="left" x="450.835" y="154.000">syslog.socket</text>
  <rect class="activating" x="445.848" y="160.000" width="0.000" height="19.000" />
  <rect class="active" x="445.848" y="160.000" width="1271.827" height="19.000" />
  <rect class="deactivating" x="1717.675" y="160.000" width="0.000" height="19.000" />
  <text class="left" x="450.848" y="174.000">systemd-ask-password-wall.path</text>
  <rect class="activating" x="445.860" y="180.000" width="0.000" height="19.000" />
  <rect class="active" x="445.860" y="180.000" width="1271.815" height="19.000" />
  <rect class="deactivating" x="1717.675" y="180.000" width="0.000" height="19.000" />
  <text class="left" x="450.860" y="194.000">systemd-journald-dev-log.socket</text>
  <rect class="activating" x="445.884" y="200.000" width="0.000" height="19.000" />
  <rect class="active" x="445.884" y="200.000" width="1271.791" height="19.000" />
  <rect class="deactivating" x="1717.675" y="200.000" width="0.000" height="19.000" />
  <text class="left" x="450.884" y="214.000">proc-sys-fs-binfmt_misc.automount</text>
  <rect class="activating" x="445.899" y="220.000" width="0.000" height="19.000" />
  <rect class="active" x="445.899" y="220.000" width="1271.776" height="19.000" />
  <rect class="deactivating" x="1717.675" y="220.000" width="0.000" height="19.000" />
  <text class="left" x="450.899" y="234.000">systemd-journald-audit.socket</text>
  <rect class="activating" x="445.908" y="240.000" width="0.000" height="19.000" />
  <rect class="active" x="445.908" y="240.000" width="1271.766" height="19.000" />
  <rect class="deactivating" x="1717.675" y="240.000" width="0.000" height="19.000" />
  <text class="left" x="450.908" y="254.000">systemd-udevd-kernel.socket</text>
  <rect class="activating" x="445.911" y="260.000" width="0.000" height="19.000" />
  <rect class="active" x="445.911" y="260.000" width="1271.764" height="19.000" />
  <rect class="deactivating" x="1717.675" y="260.000" width="0.000" height="19.000" />
  <text class="left" x="450.911" y="274.000">remote-fs.target</text>
  <rect class="activating" x="445.921" y="280.000" width="0.000" height="19.000" />
  <rect class="active" x="445.921" y="280.000" width="1271.754" height="19.000" />
  <rect class="deactivating" x="1717.675" y="280.000" width="0.000" height="19.000" />
  <text class="left" x="450.921" y="294.000">systemd-udevd-control.socket</text>
  <rect class="activating" x="446.196" y="300.000" width="0.000" height="19.000" />
  <rect class="active" x="446.196" y="300.000" width="1271.479" height="19.000" />
  <rect class="deactivating" x="1717.675" y="300.000" width="0.000" height="19.000" />
  <text class="left" x="451.196" y="314.000">system-getty.slice</text>
  <rect class="activating" x="446.204" y="320.000" width="0.000" height="19.000" />
  <rect class="active" x="446.204" y="320.000" width="1271.471" height="19.000" />
  <rect class="deactivating" x="1717.675" y="320.000" width="0.000" height="19.000" />
  <text class="left" x="451.204" y="334.000">systemd-initctl.socket</text>
  <rect class="activating" x="446.233" y="340.000" width="0.000" height="19.000" />
  <rect class="active" x="446.233" y="340.000" width="1271.442" height="19.000" />
  <rect class="deactivating" x="1717.675" y="340.000" width="0.000" height="19.000" />
  <text class="left" x="451.233" y="354.000">system-serial\x2dgetty.slice</text>
  <rect class="activating" x="446.249" y="360.000" width="0.000" height="19.000" />
  <rect class="active" x="446.249" y="360.000" width="1271.426" height="19.000" />
  <rect class="deactivating" x="1717.675" y="360.000" width="0.000" height="19.000" />
  <text class="left" x="451.249" y="374.000">systemd-journald.socket</text>
  <rect class="activating" x="446.340" y="380.000" width="2.649" height="19.000" />
  <rect class="active" x="448.988" y="380.000" width="1268.687" height="19.000" />
  <rect class="deactivating" x="1717.675" y="380.000" width="0.000" height="19.000" />
  <text class="left" x="451.340" y="394.000">kmod-static-nodes.service (26ms)</text>
  <rect class="activating" x="446.450" y="400.000" width="3.563" height="19.000" />
  <rect class="active" x="450.013" y="400.000" width="1267.662" height="19.000" />
  <rect class="deactivating" x="1717.675" y="400.000" width="0.000" height="19.000" />
  <text class="left" x="451.450" y="414.000">dev-mqueue.mount (35ms)</text>
  <rect class="activating" x="446.537" y="420.000" width="5.867" height="19.000" />
  <rect class="active" x="452.404" y="420.000" width="1265.271" height="19.000" />
  <rect class="deactivating" x="1717.675" y="420.000" width="0.000" height="19.000" />
  <text class="left" x="451.537" y="434.000">dstat.service (58ms)</text>
  <rect class="activating" x="446.630" y="440.000" width="3.791" height="19.000" />
  <rect class="active" x="450.421" y="440.000" width="1267.254" height="19.000" />
  <rect class="deactivating" x="1717.675" y="440.000" width="0.000" height="19.000" />
  <text class="left" x="451.630" y="454.000">systemd-remount-fs.service (37ms)</text>
  <rect class="activating" x="446.731" y="460.000" width="3.297" height="19.000" />
  <rect class="active" x="450.028" y="460.000" width="1267.647" height="19.000" />
  <rect class="deactivating" x="1717.675" y="460.000" width="0.000" height="19.000" />
  <text class="left" x="451.731" y="474.000">dev-hugepages.mount (32ms)</text>
  <rect class="activating" x="447.545" y="480.000" width="2.498" height="19.000" />
  <rect class="active" x="450.043" y="480.000" width="1267.632" height="19.000" />
  <rect class="deactivating" x="1717.675" y="480.000" width="0.000" height="19.000" />
  <text class="left" x="452.545" y="494.000">sys-kernel-debug.mount (24ms)</text>
  <rect class="activating" x="448.205" y="500.000" width="3.978" height="19.000" />
  <rect class="active" x="452.183" y="500.000" width="1265.492" height="19.000" />
  <rect class="deactivating" x="1717.675" y="500.000" width="0.000" height="19.000" />
  <text class="left" x="453.205" y="514.000">systemd-modules-load.service (39ms)</text>
  <rect class="activating" x="448.320" y="520.000" width="18.138" height="19.000" />
  <rect class="active" x="466.458" y="520.000" width="1251.217" height="19.000" />
  <rect class="deactivating" x="1717.675" y="520.000" width="0.000" height="19.000" />
  <text class="left" x="453.320" y="534.000">systemd-udev-trigger.service (181ms)</text>
  <rect class="activating" x="448.358" y="540.000" width="0.000" height="19.000" />
  <rect class="active" x="448.358" y="540.000" width="1269.317" height="19.000" />
  <rect class="deactivating" x="1717.675" y="540.000" width="0.000" height="19.000" />
  <text class="left" x="453.358" y="554.000">user.slice</text>
  <rect class="activating" x="448.363" y="560.000" width="0.000" height="19.000" />
  <rect class="active" x="448.363" y="560.000" width="1269.312" height="19.000" />
  <rect class="deactivating" x="1717.675" y="560.000" width="0.000" height="19.000" />
  <text class="left" x="453.363" y="574.000">slices.target</text>
  <rect class="activating" x="448.710" y="580.000" width="33.445" height="19.000" />
  <rect class="active" x="482.154" y="580.000" width="1235.521" height="19.000" />
  <rect class="deactivating" x="1717.675" y="580.000" width="0.000" height="19.000" />
  <text class="left" x="453.710" y="594.000">systemd-journald.service (334ms)</text>
  <rect class="activating" x="448.728" y="600.000" width="0.000" height="19.000" />
  <rect class="active" x="448.728" y="600.000" width="1268.947" height="19.000" />
  <rect class="deactivating" x="1717.675" y="600.000" width="0.000" height="19.000" />
  <text class="left" x="453.728" y="614.000">systemd-ask-password-console.path</text>
  <rect class="activating" x="448.731" y="620.000" width="0.000" height="19.000" />
  <rect class="active" x="448.731" y="620.000" width="1268.944" height="19.000" />
  <rect class="deactivating" x="1717.675" y="620.000" width="0.000" height="19.000" />
  <text class="left" x="453.731" y="634.000">paths.target</text>
  <rect class="activating" x="448.733" y="640.000" width="0.000" height="19.000" />
  <rect class="active" x="448.733" y="640.000" width="1268.942" height="19.000" />
  <rect class="deactivating" x="1717.675" y="640.000" width="0.000" height="19.000" />
  <text class="left" x="453.733" y="654.000">cryptsetup.target</text>
  <rect class="activating" x="448.835" y="660.000" width="19.412" height="19.000" />
  <rect class="active" x="468.248" y="660.000" width="1249.427" height="19.000" />
  <rect class="deactivating" x="1717.675" y="660.000" width="0.000" height="19.000" />
  <text class="left" x="453.835" y="674.000">keyboard-setup.service (194ms)</text>
  <rect class="activating" x="450.570" y="680.000" width="10.906" height="19.000" />
  <rect class="active" x="461.476" y="680.000" width="1256.199" height="19.000" />
  <rect class="deactivating" x="1717.675" y="680.000" width="0.000" height="19.000" />
  <text class="left" x="455.570" y="694.000">systemd-sysusers.service (109ms)</text>
  <rect class="activating" x="450.675" y="700.000" width="10.443" height="19.000" />
  <rect class="active" x="461.118" y="700.000" width="1256.557" height="19.000" />
  <rect class="deactivating" x="1717.675" y="700.000" width="0.000" height="19.000" />
  <text class="left" x="455.675" y="714.000">systemd-random-seed.service (104ms)</text>
  <rect class="activating" x="452.327" y="720.000" width="2.524" height="19.000" />
  <rect class="active" x="454.850" y="720.000" width="1262.825" height="19.000" />
  <rect class="deactivating" x="1717.675" y="720.000" width="0.000" height="19.000" />
  <text class="left" x="457.327" y="734.000">systemd-sysctl.service (25ms)</text>
  <rect class="activating" x="461.588" y="740.000" width="4.592" height="19.000" />
  <rect class="active" x="466.180" y="740.000" width="1251.495" height="19.000" />
  <rect class="deactivating" x="1717.675" y="740.000" width="0.000" height="19.000" />
  <text class="left" x="466.588" y="754.000">systemd-tmpfiles-setup-dev.service (45ms)</text>
  <rect class="activating" x="466.345" y="760.000" width="7.611" height="19.000" />
  <rect class="active" x="473.957" y="760.000" width="1243.718" height="19.000" />
  <rect class="deactivating" x="1717.675" y="760.000" width="0.000" height="19.000" />
  <text class="left" x="471.345" y="774.000">systemd-udevd.service (76ms)</text>
  <rect class="activating" x="466.765" y="780.000" width="375.857" height="19.000" />
  <rect class="active" x="842.622" y="780.000" width="875.053" height="19.000" />
  <rect class="deactivating" x="1717.675" y="780.000" width="0.000" height="19.000" />
  <text class="left" x="471.765" y="794.000">ifupdown-pre.service (3.758s)</text>
  <rect class="activating" x="468.264" y="800.000" width="0.000" height="19.000" />
  <rect class="active" x="468.264" y="800.000" width="1249.410" height="19.000" />
  <rect class="deactivating" x="1717.675" y="800.000" width="0.000" height="19.000" />
  <text class="left" x="473.264" y="814.000">local-fs-pre.target</text>
  <rect class="activating" x="482.337" y="820.000" width="4.942" height="19.000" />
  <rect class="active" x="487.279" y="820.000" width="1230.396" height="19.000" />
  <rect class="deactivating" x="1717.675" y="820.000" width="0.000" height="19.000" />
  <text class="left" x="487.337" y="834.000">systemd-journal-flush.service (49ms)</text>
  <rect class="activating" x="487.182" y="840.000" width="0.000" height="19.000" />
  <rect class="active" x="487.182" y="840.000" width="1230.493" height="19.000" />
  <rect class="deactivating" x="1717.675" y="840.000" width="0.000" height="19.000" />
  <text class="left" x="492.182" y="854.000">dev-ttyS3.device</text>
  <rect class="activating" x="487.184" y="860.000" width="0.000" height="19.000" />
  <rect class="active" x="487.184" y="860.000" width="1230.491" height="19.000" />
  <rect class="deactivating" x="1717.675" y="860.000" width="0.000" height="19.000" />
  <text class="left" x="492.184" y="874.000">sys-devices-platform-serial8250-tty-ttyS3.device</text>
  <rect class="activating" x="487.817" y="880.000" width="0.000" height="19.000" />
  <rect class="active" x="487.817" y="880.000" width="1229.858" height="19.000" />
  <rect class="deactivating" x="1717.675" y="880.000" width="0.000" height="19.000" />
  <text class="left" x="492.817" y="894.000">dev-ttyS2.device</text>
  <rect class="activating" x="487.819" y="900.000" width="0.000" height="19.000" />
  <rect class="active" x="487.819" y="900.000" width="1229.856" height="19.000" />
  <rect class="deactivating" x="1717.675" y="900.000" width="0.000" height="19.000" />
  <text class="left" x="492.819" y="914.000">sys-devices-platform-serial8250-tty-ttyS2.device</text>
  <rect class="activating" x="488.187" y="920.000" width="0.000" height="19.000" />
  <rect class="active" x="488.187" y="920.000" width="1229.487" height="19.000" />
  <rect class="deactivating" x="1717.675" y="920.000" width="0.000" height="19.000" />
  <text class="left" x="493.187" y="934.000">dev-ttyS0.device</text>
  <rect class="activating" x="488.189" y="940.000" width="0.000" height="19.000" />
  <rect class="active" x="488.189" y="940.000" width="1229.486" height="19.000" />
  <rect class="deactivating" x="1717.675" y="940.000" width="0.000" height="19.000" />
  <text class="left" x="493.189" y="954.000">sys-devices-pnp0-00:02-tty-ttyS0.device</text>
  <rect class="activating" x="488.430" y="960.000" width="0.000" height="19.000" />
  <rect class="active" x="488.430" y="960.000" width="1229.245" height="19.000" />
  <rect class="deactivating" x="1717.675" y="960.000" width="0.000" height="19.000" />
  <text class="left" x="493.430" y="974.000">dev-ttyS1.device</text>
  <rect class="activating" x="488.434" y="980.000" width="0.000" height="19.000" />
  <rect class="active" x="488.434" y="980.000" width="1229.241" height="19.000" />
  <rect class="deactivating" x="1717.675" y="980.000" width="0.000" height="19.000" />
  <text class="left" x="493.434" y="994.000">sys-devices-pnp0-00:03-tty-ttyS1.device</text>
  <rect class="activating" x="489.545" y="1000.000" width="0.000" height="19.000" />
  <rect class="active" x="489.545" y="1000.000" width="1228.130" height="19.000" />
  <rect class="deactivating" x="1717.675" y="1000.000" width="0.000" height="19.000" />
  <text class="left" x="494.545" y="1014.000">sys-subsystem-net-devices-eno1.device</text>
  <rect class="activating" x="489.546" y="1020.000" width="0.000" height="19.000" />
  <rect class="active" x="489.546" y="1020.000" width="1228.129" height="19.000" />
  <rect class="deactivating" x="1717.675" y="1020.000" width="0.000" height="19.000" />
  <text class="left" x="494.546" y="1034.000">sys-devices-pci0000:00-0000:00:01.0-0000:01:00.0-net-eno1.device</text>
  <rect class="activating" x="490.046" y="1040.000" width="0.000" height="19.000" />
  <rect class="active" x="490.046" y="1040.000" width="1227.629" height="19.000" />
  <rect class="deactivating" x="1717.675" y="1040.000" width="0.000" height="19.000" />
  <text class="left" x="495.046" y="1054.000">sys-subsystem-net-devices-enp68s0f0.device</text>
  <rect class="activating" x="490.047" y="1060.000" width="0.000" height="19.000" />
  <rect class="active" x="490.047" y="1060.000" width="1227.628" height="19.000" />
  <rect class="deactivating" x="1717.675" y="1060.000" width="0.000" height="19.000" />
  <text class="left" x="495.047" y="1074.000">sys-devices-pci0000:40-0000:40:03.2-0000:44:00.0-net-enp68s0f0.device</text>
  <rect class="activating" x="490.529" y="1080.000" width="0.000" height="19.000" />
  <rect class="active" x="490.529" y="1080.000" width="1227.146" height="19.000" />
  <rect class="deactivating" x="1717.675" y="1080.000" width="0.000" height="19.000" />
  <text class="left" x="495.529" y="1094.000">sys-subsystem-net-devices-eno2.device</text>
  <rect class="activating" x="490.530" y="1100.000" width="0.000" height="19.000" />
  <rect class="active" x="490.530" y="1100.000" width="1227.145" height="19.000" />
  <rect class="deactivating" x="1717.675" y="1100.000" width="0.000" height="19.000" />
  <text class="left" x="495.530" y="1114.000">sys-devices-pci0000:00-0000:00:01.0-0000:01:00.1-net-eno2.device</text>
  <rect class="activating" x="491.020" y="1120.000" width="0.000" height="19.000" />
  <rect class="active" x="491.020" y="1120.000" width="1226.655" height="19.000" />
  <rect class="deactivating" x="1717.675" y="1120.000" width="0.000" height="19.000" />
  <text class="left" x="496.020" y="1134.000">sys-subsystem-net-devices-enp68s0f1.device</text>
  <rect class="activating" x="491.021" y="1140.000" width="0.000" height="19.000" />
  <rect class="active" x="491.021" y="1140.000" width="1226.654" height="19.000" />
  <rect class="deactivating" x="1717.675" y="1140.000" width="0.000" height="19.000" />
  <text class="left" x="496.021" y="1154.000">sys-devices-pci0000:40-0000:40:03.2-0000:44:00.1-net-enp68s0f1.device</text>
  <rect class="activating" x="491.567" y="1160.000" width="0.000" height="19.000" />
  <rect class="active" x="491.567" y="1160.000" width="1226.108" height="19.000" />
  <rect class="deactivating" x="1717.675" y="1160.000" width="0.000" height="19.000" />
  <text class="left" x="496.567" y="1174.000">sys-subsystem-net-devices-eno3.device</text>
  <rect class="activating" x="491.568" y="1180.000" width="0.000" height="19.000" />
  <rect class="active" x="491.568" y="1180.000" width="1226.107" height="19.000" />
  <rect class="deactivating" x="1717.675" y="1180.000" width="0.000" height="19.000" />
  <text class="left" x="496.568" y="1194.000">sys-devices-pci0000:00-0000:00:01.0-0000:01:00.2-net-eno3.device</text>
  <rect class="activating" x="492.058" y="1200.000" width="0.000" height="19.000" />
  <rect class="active" x="492.058" y="1200.000" width="1225.617" height="19.000" />
  <rect class="deactivating" x="1717.675" y="1200.000" width="0.000" height="19.000" />
  <text class="left" x="497.058" y="1214.000">sys-subsystem-net-devices-eno4.device</text>
  <rect class="activating" x="492.059" y="1220.000" width="0.000" height="19.000" />
  <rect class="active" x="492.059" y="1220.000" width="1225.616" height="19.000" />
  <rect class="deactivating" x="1717.675" y="1220.000" width="0.000" height="19.000" />
  <text class="left" x="497.059" y="1234.000">sys-devices-pci0000:00-0000:00:01.0-0000:01:00.3-net-eno4.device</text>
  <rect class="activating" x="502.893" y="1240.000" width="0.000" height="19.000" />
  <rect class="active" x="502.893" y="1240.000" width="1214.782" height="19.000" />
  <rect class="deactivating" x="1717.675" y="1240.000" width="0.000" height="19.000" />
  <text class="left" x="507.893" y="1254.000">dev-disk-by\x2did-scsi\x2d36d4ae520ab02c6001794153119121d98.device</text>
  <rect class="activating" x="502.895" y="1260.000" width="0.000" height="19.000" />
  <rect class="active" x="502.895" y="1260.000" width="1214.780" height="19.000" />
  <rect class="deactivating" x="1717.675" y="1260.000" width="0.000" height="19.000" />
  <text class="left" x="507.895" y="1274.000">dev-disk-by\x2dpath-pci\x2d0000:02:00.0\x2dscsi\x2d0:2:0:0.device</text>
  <rect class="activating" x="502.895" y="1280.000" width="0.000" height="19.000" />
  <rect class="active" x="502.895" y="1280.000" width="1214.780" height="19.000" />
  <rect class="deactivating" x="1717.675" y="1280.000" width="0.000" height="19.000" />
  <text class="left" x="507.895" y="1294.000">dev-disk-by\x2did-wwn\x2d0x6d4ae520ab02c6001794153119121d98.device</text>
  <rect class="activating" x="502.896" y="1300.000" width="0.000" height="19.000" />
  <rect class="active" x="502.896" y="1300.000" width="1214.779" height="19.000" />
  <rect class="deactivating" x="1717.675" y="1300.000" width="0.000" height="19.000" />
  <text class="left" x="507.896" y="1314.000">dev-sda.device</text>
  <rect class="activating" x="502.897" y="1320.000" width="0.000" height="19.000" />
  <rect class="active" x="502.897" y="1320.000" width="1214.778" height="19.000" />
  <rect class="deactivating" x="1717.675" y="1320.000" width="0.000" height="19.000" />
  <text class="left" x="507.897" y="1334.000">sys-devices-pci0000:00-0000:00:02.2-0000:02:00.0-host0-target0:2:0-0:2:0:0-block-sda.device</text>
  <rect class="activating" x="504.107" y="1340.000" width="0.000" height="19.000" />
  <rect class="active" x="504.107" y="1340.000" width="1213.568" height="19.000" />
  <rect class="deactivating" x="1717.675" y="1340.000" width="0.000" height="19.000" />
  <text class="left" x="509.107" y="1354.000">dev-disk-by\x2dpartuuid-fe13ddc7\x2d04.device</text>
  <rect class="activating" x="504.108" y="1360.000" width="0.000" height="19.000" />
  <rect class="active" x="504.108" y="1360.000" width="1213.567" height="19.000" />
  <rect class="deactivating" x="1717.675" y="1360.000" width="0.000" height="19.000" />
  <text class="left" x="509.108" y="1374.000">dev-disk-by\x2dpath-pci\x2d0000:02:00.0\x2dscsi\x2d0:2:0:0\x2dpart4.device</text>
  <rect class="activating" x="504.109" y="1380.000" width="0.000" height="19.000" />
  <rect class="active" x="504.109" y="1380.000" width="1213.566" height="19.000" />
  <rect class="deactivating" x="1717.675" y="1380.000" width="0.000" height="19.000" />
  <text class="left" x="509.109" y="1394.000">dev-disk-by\x2did-wwn\x2d0x6d4ae520ab02c6001794153119121d98\x2dpart4.device</text>
  <rect class="activating" x="504.109" y="1400.000" width="0.000" height="19.000" />
  <rect class="active" x="504.109" y="1400.000" width="1213.566" height="19.000" />
  <rect class="deactivating" x="1717.675" y="1400.000" width="0.000" height="19.000" />
  <text class="left" x="509.109" y="1414.000">dev-disk-by\x2did-scsi\x2d36d4ae520ab02c6001794153119121d98\x2dpart4.device</text>
  <rect class="activating" x="504.110" y="1420.000" width="0.000" height="19.000" />
  <rect class="active" x="504.110" y="1420.000" width="1213.565" height="19.000" />
  <rect class="deactivating" x="1717.675" y="1420.000" width="0.000" height="19.000" />
  <text class="left" x="509.110" y="1434.000">dev-sda4.device</text>
  <rect class="activating" x="504.111" y="1440.000" width="0.000" height="19.000" />
  <rect class="active" x="504.111" y="1440.000" width="1213.564" height="19.000" />
  <rect class="deactivating" x="1717.675" y="1440.000" width="0.000" height="19.000" />
  <text class="left" x="509.111" y="1454.000">sys-devices-pci0000:00-0000:00:02.2-0000:02:00.0-host0-target0:2:0-0:2:0:0-block-sda-sda4.device</text>
  <rect class="activating" x="510.497" y="1460.000" width="0.000" height="19.000" />
  <rect class="active" x="510.497" y="1460.000" width="1207.178" height="19.000" />
  <rect class="deactivating" x="1717.675" y="1460.000" width="0.000" height="19.000" />
  <text class="left" x="515.497" y="1474.000">dev-disk-by\x2did-scsi\x2d36d4ae520ab02c6001794153119121d98\x2dpart5.device</text>
  <rect class="activating" x="510.498" y="1480.000" width="0.000" height="19.000" />
  <rect class="active" x="510.498" y="1480.000" width="1207.177" height="19.000" />
  <rect class="deactivating" x="1717.675" y="1480.000" width="0.000" height="19.000" />
  <text class="left" x="515.498" y="1494.000">dev-disk-by\x2did-wwn\x2d0x6d4ae520ab02c6001794153119121d98\x2dpart5.device</text>
  <rect class="activating" x="510.499" y="1500.000" width="0.000" height="19.000" />
  <rect class="active" x="510.499" y="1500.000" width="1207.176" height="19.000" />
  <rect class="deactivating" x="1717.675" y="1500.000" width="0.000" height="19.000" />
  <text class="left" x="515.499" y="1514.000">dev-disk-by\x2dpath-pci\x2d0000:02:00.0\x2dscsi\x2d0:2:0:0\x2dpart5.device</text>
  <rect class="activating" x="510.499" y="1520.000" width="0.000" height="19.000" />
  <rect class="active" x="510.499" y="1520.000" width="1207.176" height="19.000" />
  <rect class="deactivating" x="1717.675" y="1520.000" width="0.000" height="19.000" />
  <text class="left" x="515.499" y="1534.000">dev-disk-by\x2dpartuuid-fe13ddc7\x2d05.device</text>
  <rect class="activating" x="510.500" y="1540.000" width="0.000" height="19.000" />
  <rect class="active" x="510.500" y="1540.000" width="1207.175" height="19.000" />
  <rect class="deactivating" x="1717.675" y="1540.000" width="0.000" height="19.000" />
  <text class="left" x="515.500" y="1554.000">dev-disk-by\x2duuid-da243d60\x2d1559\x2d482b\x2db00d\x2daeaa148ba40d.device</text>
  <rect class="activating" x="510.501" y="1560.000" width="0.000" height="19.000" />
  <rect class="active" x="510.501" y="1560.000" width="1207.174" height="19.000" />
  <rect class="deactivating" x="1717.675" y="1560.000" width="0.000" height="19.000" />
  <text class="left" x="515.501" y="1574.000">dev-sda5.device</text>
  <rect class="activating" x="510.506" y="1580.000" width="0.000" height="19.000" />
  <rect class="active" x="510.506" y="1580.000" width="1207.169" height="19.000" />
  <rect class="deactivating" x="1717.675" y="1580.000" width="0.000" height="19.000" />
  <text class="left" x="515.506" y="1594.000">sys-devices-pci0000:00-0000:00:02.2-0000:02:00.0-host0-target0:2:0-0:2:0:0-block-sda-sda5.device</text>
  <rect class="activating" x="512.584" y="1600.000" width="8.406" height="19.000" />
  <rect class="active" x="520.990" y="1600.000" width="1196.684" height="19.000" />
  <rect class="deactivating" x="1717.675" y="1600.000" width="0.000" height="19.000" />
  <text class="left" x="517.584" y="1614.000">tmp.mount (84ms)</text>
  <rect class="activating" x="518.333" y="1620.000" width="0.000" height="19.000" />
  <rect class="active" x="518.333" y="1620.000" width="1199.342" height="19.000" />
  <rect class="deactivating" x="1717.675" y="1620.000" width="0.000" height="19.000" />
  <text class="left" x="523.333" y="1634.000">dev-disk-by\x2dpath-pci\x2d0000:02:00.0\x2dscsi\x2d0:2:0:0\x2dpart3.device</text>
  <rect class="activating" x="518.334" y="1640.000" width="0.000" height="19.000" />
  <rect class="active" x="518.334" y="1640.000" width="1199.341" height="19.000" />
  <rect class="deactivating" x="1717.675" y="1640.000" width="0.000" height="19.000" />
  <text class="left" x="523.334" y="1654.000">dev-disk-by\x2duuid-461ade8b\x2d3ced\x2d4b9b\x2d9bef\x2dcbcd345ddbea.device</text>
  <rect class="activating" x="518.335" y="1660.000" width="0.000" height="19.000" />
  <rect class="active" x="518.335" y="1660.000" width="1199.340" height="19.000" />
  <rect class="deactivating" x="1717.675" y="1660.000" width="0.000" height="19.000" />
  <text class="left" x="523.335" y="1674.000">dev-disk-by\x2did-scsi\x2d36d4ae520ab02c6001794153119121d98\x2dpart3.device</text>
  <rect class="activating" x="518.336" y="1680.000" width="0.000" height="19.000" />
  <rect class="active" x="518.336" y="1680.000" width="1199.339" height="19.000" />
  <rect class="deactivating" x="1717.675" y="1680.000" width="0.000" height="19.000" />
  <text class="left" x="523.336" y="1694.000">dev-disk-by\x2dpartuuid-fe13ddc7\x2d03.device</text>
  <rect class="activating" x="518.337" y="1700.000" width="0.000" height="19.000" />
  <rect class="active" x="518.337" y="1700.000" width="1199.338" height="19.000" />
  <rect class="deactivating" x="1717.675" y="1700.000" width="0.000" height="19.000" />
  <text class="left" x="523.337" y="1714.000">dev-disk-by\x2did-wwn\x2d0x6d4ae520ab02c6001794153119121d98\x2dpart3.device</text>
  <rect class="activating" x="518.337" y="1720.000" width="0.000" height="19.000" />
  <rect class="active" x="518.337" y="1720.000" width="1199.338" height="19.000" />
  <rect class="deactivating" x="1717.675" y="1720.000" width="0.000" height="19.000" />
  <text class="left" x="523.337" y="1734.000">sys-devices-pci0000:00-0000:00:02.2-0000:02:00.0-host0-target0:2:0-0:2:0:0-block-sda-sda3.device</text>
  <rect class="activating" x="519.647" y="1740.000" width="0.000" height="19.000" />
  <rect class="active" x="519.647" y="1740.000" width="1198.028" height="19.000" />
  <rect class="deactivating" x="1717.675" y="1740.000" width="0.000" height="19.000" />
  <text class="left" x="524.647" y="1754.000">dev-disk-by\x2dpath-pci\x2d0000:02:00.0\x2dscsi\x2d0:2:0:0\x2dpart2.device</text>
  <rect class="activating" x="519.648" y="1760.000" width="0.000" height="19.000" />
  <rect class="active" x="519.648" y="1760.000" width="1198.027" height="19.000" />
  <rect class="deactivating" x="1717.675" y="1760.000" width="0.000" height="19.000" />
  <text class="left" x="524.648" y="1774.000">dev-disk-by\x2duuid-833cd466\x2d23ba\x2d49a8\x2db91b\x2ddf27c5157c00.device</text>
  <rect class="activating" x="519.649" y="1780.000" width="0.000" height="19.000" />
  <rect class="active" x="519.649" y="1780.000" width="1198.026" height="19.000" />
  <rect class="deactivating" x="1717.675" y="1780.000" width="0.000" height="19.000" />
  <text class="left" x="524.649" y="1794.000">dev-disk-by\x2dpartuuid-fe13ddc7\x2d02.device</text>
  <rect class="activating" x="519.649" y="1800.000" width="0.000" height="19.000" />
  <rect class="active" x="519.649" y="1800.000" width="1198.025" height="19.000" />
  <rect class="deactivating" x="1717.675" y="1800.000" width="0.000" height="19.000" />
  <text class="left" x="524.649" y="1814.000">dev-disk-by\x2did-scsi\x2d36d4ae520ab02c6001794153119121d98\x2dpart2.device</text>
  <rect class="activating" x="519.650" y="1820.000" width="0.000" height="19.000" />
  <rect class="active" x="519.650" y="1820.000" width="1198.025" height="19.000" />
  <rect class="deactivating" x="1717.675" y="1820.000" width="0.000" height="19.000" />
  <text class="left" x="524.650" y="1834.000">dev-disk-by\x2did-wwn\x2d0x6d4ae520ab02c6001794153119121d98\x2dpart2.device</text>
  <rect class="activating" x="519.651" y="1840.000" width="0.000" height="19.000" />
  <rect class="active" x="519.651" y="1840.000" width="1198.024" height="19.000" />
  <rect class="deactivating" x="1717.675" y="1840.000" width="0.000" height="19.000" />
  <text class="left" x="524.651" y="1854.000">dev-sda2.device</text>
  <rect class="activating" x="519.652" y="1860.000" width="0.000" height="19.000" />
  <rect class="active" x="519.652" y="1860.000" width="1198.023" height="19.000" />
  <rect class="deactivating" x="1717.675" y="1860.000" width="0.000" height="19.000" />
  <text class="left" x="524.652" y="1874.000">sys-devices-pci0000:00-0000:00:02.2-0000:02:00.0-host0-target0:2:0-0:2:0:0-block-sda-sda2.device</text>
  <rect class="activating" x="520.870" y="1880.000" width="0.000" height="19.000" />
  <rect class="active" x="520.870" y="1880.000" width="1196.805" height="19.000" />
  <rect class="deactivating" x="1717.675" y="1880.000" width="0.000" height="19.000" />
  <text class="left" x="525.870" y="1894.000">dev-disk-by\x2did-wwn\x2d0x6d4ae520ab02c6001794153119121d98\x2dpart1.device</text>
  <rect class="activating" x="520.870" y="1900.000" width="0.000" height="19.000" />
  <rect class="active" x="520.870" y="1900.000" width="1196.804" height="19.000" />
  <rect class="deactivating" x="1717.675" y="1900.000" width="0.000" height="19.000" />
  <text class="left" x="525.870" y="1914.000">dev-disk-by\x2duuid-2cc86cfa\x2d6d2c\x2d4e20\x2d80dd\x2d9a73f3e1b7bc.device</text>
  <rect class="activating" x="520.871" y="1920.000" width="0.000" height="19.000" />
  <rect class="active" x="520.871" y="1920.000" width="1196.804" height="19.000" />
  <rect class="deactivating" x="1717.675" y="1920.000" width="0.000" height="19.000" />
  <text class="left" x="525.871" y="1934.000">dev-disk-by\x2did-scsi\x2d36d4ae520ab02c6001794153119121d98\x2dpart1.device</text>
  <rect class="activating" x="520.872" y="1940.000" width="0.000" height="19.000" />
  <rect class="active" x="520.872" y="1940.000" width="1196.803" height="19.000" />
  <rect class="deactivating" x="1717.675" y="1940.000" width="0.000" height="19.000" />
  <text class="left" x="525.872" y="1954.000">dev-disk-by\x2dpartuuid-fe13ddc7\x2d01.device</text>
  <rect class="activating" x="520.873" y="1960.000" width="0.000" height="19.000" />
  <rect class="active" x="520.873" y="1960.000" width="1196.802" height="19.000" />
  <rect class="deactivating" x="1717.675" y="1960.000" width="0.000" height="19.000" />
  <text class="left" x="525.873" y="1974.000">dev-disk-by\x2dpath-pci\x2d0000:02:00.0\x2dscsi\x2d0:2:0:0\x2dpart1.device</text>
  <rect class="activating" x="520.874" y="1980.000" width="0.000" height="19.000" />
  <rect class="active" x="520.874" y="1980.000" width="1196.801" height="19.000" />
  <rect class="deactivating" x="1717.675" y="1980.000" width="0.000" height="19.000" />
  <text class="left" x="525.874" y="1994.000">dev-sda1.device</text>
  <rect class="activating" x="520.878" y="2000.000" width="0.000" height="19.000" />
  <rect class="active" x="520.878" y="2000.000" width="1196.797" height="19.000" />
  <rect class="deactivating" x="1717.675" y="2000.000" width="0.000" height="19.000" />
  <text class="left" x="525.878" y="2014.000">sys-devices-pci0000:00-0000:00:02.2-0000:02:00.0-host0-target0:2:0-0:2:0:0-block-sda-sda1.device</text>
  <rect class="activating" x="521.013" y="2020.000" width="0.000" height="19.000" />
  <rect class="active" x="521.013" y="2020.000" width="1196.662" height="19.000" />
  <rect class="deactivating" x="1717.675" y="2020.000" width="0.000" height="19.000" />
  <text class="left" x="526.013" y="2034.000">local-fs.target</text>
  <rect class="activating" x="521.162" y="2040.000" width="2.078" height="19.000" />
  <rect class="active" x="523.240" y="2040.000" width="1194.435" height="19.000" />
  <rect class="deactivating" x="1717.675" y="2040.000" width="0.000" height="19.000" />
  <text class="left" x="526.162" y="2054.000">console-setup.service (20ms)</text>
  <rect class="activating" x="521.277" y="2060.000" width="33.073" height="19.000" />
  <rect class="active" x="554.350" y="2060.000" width="1163.324" height="19.000" />
  <rect class="deactivating" x="1717.675" y="2060.000" width="0.000" height="19.000" />
  <text class="left" x="526.277" y="2074.000">apparmor.service (330ms)</text>
  <rect class="activating" x="521.377" y="2080.000" width="29.254" height="19.000" />
  <rect class="active" x="550.631" y="2080.000" width="1167.044" height="19.000" />
  <rect class="deactivating" x="1717.675" y="2080.000" width="0.000" height="19.000" />
  <text class="left" x="526.377" y="2094.000">systemd-tmpfiles-setup.service (292ms)</text>
  <rect class="activating" x="521.471" y="2100.000" width="4.972" height="19.000" />
  <rect class="active" x="526.443" y="2100.000" width="1191.231" height="19.000" />
  <rect class="deactivating" x="1717.675" y="2100.000" width="0.000" height="19.000" />
  <text class="left" x="526.471" y="2114.000">dev-sda1.swap (49ms)</text>
  <rect class="activating" x="526.430" y="2120.000" width="0.000" height="19.000" />
  <rect class="active" x="526.430" y="2120.000" width="1191.245" height="19.000" />
  <rect class="deactivating" x="1717.675" y="2120.000" width="0.000" height="19.000" />
  <text class="left" x="531.430" y="2134.000">dev-disk-by\x2did-scsi\x2d36d4ae520ab02c6001794153119121d98\x2dpart1.swap</text>
  <rect class="activating" x="526.435" y="2140.000" width="0.000" height="19.000" />
  <rect class="active" x="526.435" y="2140.000" width="1191.240" height="19.000" />
  <rect class="deactivating" x="1717.675" y="2140.000" width="0.000" height="19.000" />
  <text class="left" x="531.435" y="2154.000">dev-disk-by\x2did-wwn\x2d0x6d4ae520ab02c6001794153119121d98\x2dpart1.swap</text>
  <rect class="activating" x="526.437" y="2160.000" width="0.000" height="19.000" />
  <rect class="active" x="526.437" y="2160.000" width="1191.238" height="19.000" />
  <rect class="deactivating" x="1717.675" y="2160.000" width="0.000" height="19.000" />
  <text class="left" x="531.437" y="2174.000">dev-disk-by\x2dpartuuid-fe13ddc7\x2d01.swap</text>
  <rect class="activating" x="526.440" y="2180.000" width="0.000" height="19.000" />
  <rect class="active" x="526.440" y="2180.000" width="1191.235" height="19.000" />
  <rect class="deactivating" x="1717.675" y="2180.000" width="0.000" height="19.000" />
  <text class="left" x="531.440" y="2194.000">dev-disk-by\x2duuid-2cc86cfa\x2d6d2c\x2d4e20\x2d80dd\x2d9a73f3e1b7bc.swap</text>
  <rect class="activating" x="526.442" y="2200.000" width="0.000" height="19.000" />
  <rect class="active" x="526.442" y="2200.000" width="1191.233" height="19.000" />
  <rect class="deactivating" x="1717.675" y="2200.000" width="0.000" height="19.000" />
  <text class="left" x="531.442" y="2214.000">dev-disk-by\x2dpath-pci\x2d0000:02:00.0\x2dscsi\x2d0:2:0:0\x2dpart1.swap</text>
  <rect class="activating" x="526.487" y="2220.000" width="0.000" height="19.000" />
  <rect class="active" x="526.487" y="2220.000" width="1191.188" height="19.000" />
  <rect class="deactivating" x="1717.675" y="2220.000" width="0.000" height="19.000" />
  <text class="left" x="531.487" y="2234.000">swap.target</text>
  <rect class="activating" x="547.577" y="2240.000" width="0.000" height="19.000" />
  <rect class="active" x="547.577" y="2240.000" width="1170.098" height="19.000" />
  <rect class="deactivating" x="1717.675" y="2240.000" width="0.000" height="19.000" />
  <text class="left" x="552.577" y="2254.000">dev-disk-by\x2did-ata\x2dTSSTcorp_DVD\x2dROM_SN\x2d108BB_R8TG6GDC200DVL.device</text>
  <rect class="activating" x="547.578" y="2260.000" width="0.000" height="19.000" />
  <rect class="active" x="547.578" y="2260.000" width="1170.097" height="19.000" />
  <rect class="deactivating" x="1717.675" y="2260.000" width="0.000" height="19.000" />
  <text class="left" x="552.578" y="2274.000">dev-disk-by\x2dpath-pci\x2d0000:00:1f.2\x2data\x2d5.device</text>
  <rect class="activating" x="547.579" y="2280.000" width="0.000" height="19.000" />
  <rect class="active" x="547.579" y="2280.000" width="1170.096" height="19.000" />
  <rect class="deactivating" x="1717.675" y="2280.000" width="0.000" height="19.000" />
  <text class="left" x="552.579" y="2294.000">dev-cdrom.device</text>
  <rect class="activating" x="547.579" y="2300.000" width="0.000" height="19.000" />
  <rect class="active" x="547.579" y="2300.000" width="1170.096" height="19.000" />
  <rect class="deactivating" x="1717.675" y="2300.000" width="0.000" height="19.000" />
  <text class="left" x="552.579" y="2314.000">dev-dvd.device</text>
  <rect class="activating" x="547.580" y="2320.000" width="0.000" height="19.000" />
  <rect class="active" x="547.580" y="2320.000" width="1170.095" height="19.000" />
  <rect class="deactivating" x="1717.675" y="2320.000" width="0.000" height="19.000" />
  <text class="left" x="552.580" y="2334.000">dev-sr0.device</text>
  <rect class="activating" x="547.581" y="2340.000" width="0.000" height="19.000" />
  <rect class="active" x="547.581" y="2340.000" width="1170.094" height="19.000" />
  <rect class="deactivating" x="1717.675" y="2340.000" width="0.000" height="19.000" />
  <text class="left" x="552.581" y="2354.000">sys-devices-pci0000:00-0000:00:1f.2-ata5-host5-target5:0:0-5:0:0:0-block-sr0.device</text>
  <rect class="activating" x="550.751" y="2360.000" width="7.488" height="19.000" />
  <rect class="active" x="558.239" y="2360.000" width="1159.436" height="19.000" />
  <rect class="deactivating" x="1717.675" y="2360.000" width="0.000" height="19.000" />
  <text class="left" x="555.751" y="2374.000">systemd-update-utmp.service (74ms)</text>
  <rect class="activating" x="557.543" y="2380.000" width="0.000" height="19.000" />
  <rect class="active" x="557.543" y="2380.000" width="1160.132" height="19.000" />
  <rect class="deactivating" x="1717.675" y="2380.000" width="0.000" height="19.000" />
  <text class="left" x="562.543" y="2394.000">haveged.service</text>
  <rect class="activating" x="576.012" y="2400.000" width="0.000" height="19.000" />
  <rect class="active" x="576.012" y="2400.000" width="1141.663" height="19.000" />
  <rect class="deactivating" x="1717.675" y="2400.000" width="0.000" height="19.000" />
  <text class="left" x="581.012" y="2414.000">sysinit.target</text>
  <rect class="activating" x="576.018" y="2420.000" width="0.000" height="19.000" />
  <rect class="active" x="576.018" y="2420.000" width="1141.657" height="19.000" />
  <rect class="deactivating" x="1717.675" y="2420.000" width="0.000" height="19.000" />
  <text class="left" x="581.018" y="2434.000">systemd-tmpfiles-clean.timer</text>
  <rect class="activating" x="576.040" y="2440.000" width="0.000" height="19.000" />
  <rect class="active" x="576.040" y="2440.000" width="1141.635" height="19.000" />
  <rect class="deactivating" x="1717.675" y="2440.000" width="0.000" height="19.000" />
  <text class="left" x="581.040" y="2454.000">dbus.socket</text>
  <rect class="activating" x="576.045" y="2460.000" width="0.000" height="19.000" />
  <rect class="active" x="576.045" y="2460.000" width="1141.630" height="19.000" />
  <rect class="deactivating" x="1717.675" y="2460.000" width="0.000" height="19.000" />
  <text class="left" x="581.045" y="2474.000">sockets.target</text>
  <rect class="activating" x="576.049" y="2480.000" width="0.000" height="19.000" />
  <rect class="active" x="576.049" y="2480.000" width="1141.626" height="19.000" />
  <rect class="deactivating" x="1717.675" y="2480.000" width="0.000" height="19.000" />
  <text class="left" x="581.049" y="2494.000">basic.target</text>
  <rect class="activating" x="576.232" y="2500.000" width="16.384" height="19.000" />
  <rect class="active" x="592.616" y="2500.000" width="1125.059" height="19.000" />
  <rect class="deactivating" x="1717.675" y="2500.000" width="0.000" height="19.000" />
  <text class="left" x="581.232" y="2514.000">systemd-logind.service (163ms)</text>
  <rect class="activating" x="576.515" y="2520.000" width="0.000" height="19.000" />
  <rect class="active" x="576.515" y="2520.000" width="1141.160" height="19.000" />
  <rect class="deactivating" x="1717.675" y="2520.000" width="0.000" height="19.000" />
  <text class="left" x="581.515" y="2534.000">dbus.service</text>
  <rect class="activating" x="576.918" y="2540.000" width="0.000" height="19.000" />
  <rect class="active" x="576.918" y="2540.000" width="1140.756" height="19.000" />
  <rect class="deactivating" x="1717.675" y="2540.000" width="0.000" height="19.000" />
  <text class="left" x="581.918" y="2554.000">fans-log.service</text>
  <rect class="activating" x="577.054" y="2560.000" width="0.000" height="19.000" />
  <rect class="active" x="577.054" y="2560.000" width="1140.620" height="19.000" />
  <rect class="deactivating" x="1717.675" y="2560.000" width="0.000" height="19.000" />
  <text class="left" x="582.054" y="2574.000">cron.service</text>
  <rect class="activating" x="577.079" y="2580.000" width="0.000" height="19.000" />
  <rect class="active" x="577.079" y="2580.000" width="1140.596" height="19.000" />
  <rect class="deactivating" x="1717.675" y="2580.000" width="0.000" height="19.000" />
  <text class="left" x="582.079" y="2594.000">time-sync.target</text>
  <rect class="activating" x="577.707" y="2600.000" width="0.000" height="19.000" />
  <rect class="active" x="577.707" y="2600.000" width="1139.968" height="19.000" />
  <rect class="deactivating" x="1717.675" y="2600.000" width="0.000" height="19.000" />
  <text class="left" x="582.707" y="2614.000">man-db.timer</text>
  <rect class="activating" x="577.718" y="2620.000" width="0.000" height="19.000" />
  <rect class="active" x="577.718" y="2620.000" width="1139.957" height="19.000" />
  <rect class="deactivating" x="1717.675" y="2620.000" width="0.000" height="19.000" />
  <text class="left" x="582.718" y="2634.000">logrotate.timer</text>
  <rect class="activating" x="577.725" y="2640.000" width="0.000" height="19.000" />
  <rect class="active" x="577.725" y="2640.000" width="1139.950" height="19.000" />
  <rect class="deactivating" x="1717.675" y="2640.000" width="0.000" height="19.000" />
  <text class="left" x="582.725" y="2654.000">apt-daily.timer</text>
  <rect class="activating" x="577.733" y="2660.000" width="0.000" height="19.000" />
  <rect class="active" x="577.733" y="2660.000" width="1139.942" height="19.000" />
  <rect class="deactivating" x="1717.675" y="2660.000" width="0.000" height="19.000" />
  <text class="left" x="582.733" y="2674.000">apt-daily-upgrade.timer</text>
  <rect class="activating" x="577.737" y="2680.000" width="0.000" height="19.000" />
  <rect class="active" x="577.737" y="2680.000" width="1139.938" height="19.000" />
  <rect class="deactivating" x="1717.675" y="2680.000" width="0.000" height="19.000" />
  <text class="left" x="582.737" y="2694.000">timers.target</text>
  <rect class="activating" x="842.910" y="2700.000" width="836.740" height="19.000" />
  <rect class="active" x="1679.650" y="2700.000" width="38.025" height="19.000" />
  <rect class="deactivating" x="1717.675" y="2700.000" width="0.000" height="19.000" />
  <text class="left" x="847.910" y="2714.000">networking.service (8.367s)</text>
  <rect class="activating" x="1645.531" y="2720.000" width="1.757" height="19.000" />
  <rect class="active" x="1647.288" y="2720.000" width="70.387" height="19.000" />
  <rect class="deactivating" x="1717.675" y="2720.000" width="0.000" height="19.000" />
  <text class="right" x="1640.531" y="2734.000">rsyslog.service (17ms)</text>
  <rect class="activating" x="1655.573" y="2740.000" width="21.135" height="19.000" />
  <rect class="active" x="1676.708" y="2740.000" width="40.967" height="19.000" />
  <rect class="deactivating" x="1717.675" y="2740.000" width="0.000" height="19.000" />
  <text class="right" x="1650.573" y="2754.000">systemd-timesyncd.service (211ms)</text>
  <rect class="activating" x="1681.710" y="2760.000" width="0.000" height="19.000" />
  <rect class="active" x="1681.710" y="2760.000" width="35.965" height="19.000" />
  <rect class="deactivating" x="1717.675" y="2760.000" width="0.000" height="19.000" />
  <text class="right" x="1676.710" y="2774.000">network.target</text>
  <rect class="activating" x="1684.762" y="2780.000" width="23.357" height="19.000" />
  <rect class="active" x="1708.118" y="2780.000" width="9.557" height="19.000" />
  <rect class="deactivating" x="1717.675" y="2780.000" width="0.000" height="19.000" />
  <text class="right" x="1679.762" y="2794.000">apache2.service (233ms)</text>
  <rect class="activating" x="1686.684" y="2800.000" width="3.502" height="19.000" />
  <rect class="active" x="1690.186" y="2800.000" width="27.489" height="19.000" />
  <rect class="deactivating" x="1717.675" y="2800.000" width="0.000" height="19.000" />
  <text class="right" x="1681.684" y="2814.000">systemd-user-sessions.service (35ms)</text>
  <rect class="activating" x="1688.612" y="2820.000" width="15.377" height="19.000" />
  <rect class="active" x="1703.989" y="2820.000" width="13.686" height="19.000" />
  <rect class="deactivating" x="1717.675" y="2820.000" width="0.000" height="19.000" />
  <text class="right" x="1683.612" y="2834.000">ssh.service (153ms)</text>
  <rect class="activating" x="1692.358" y="2840.000" width="0.000" height="19.000" />
  <rect class="active" x="1692.358" y="2840.000" width="25.317" height="19.000" />
  <rect class="deactivating" x="1717.675" y="2840.000" width="0.000" height="19.000" />
  <text class="right" x="1687.358" y="2854.000">getty@tty1.service</text>
  <rect class="activating" x="1694.693" y="2860.000" width="0.000" height="19.000" />
  <rect class="active" x="1694.693" y="2860.000" width="22.982" height="19.000" />
  <rect class="deactivating" x="1717.675" y="2860.000" width="0.000" height="19.000" />
  <text class="right" x="1689.693" y="2874.000">serial-getty@ttyS1.service</text>
  <rect class="activating" x="1696.486" y="2880.000" width="0.000" height="19.000" />
  <rect class="active" x="1696.486" y="2880.000" width="21.188" height="19.000" />
  <rect class="deactivating" x="1717.675" y="2880.000" width="0.000" height="19.000" />
  <text class="right" x="1691.486" y="2894.000">getty.target</text>
  <rect class="activating" x="1709.698" y="2900.000" width="0.000" height="19.000" />
  <rect class="active" x="1709.698" y="2900.000" width="7.977" height="19.000" />
  <rect class="deactivating" x="1717.675" y="2900.000" width="0.000" height="19.000" />
  <text class="right" x="1704.698" y="2914.000">multi-user.target</text>
  <rect class="activating" x="1711.662" y="2920.000" width="0.000" height="19.000" />
  <rect class="active" x="1711.662" y="2920.000" width="6.013" height="19.000" />
  <rect class="deactivating" x="1717.675" y="2920.000" width="0.000" height="19.000" />
  <text class="right" x="1706.662" y="2934.000">graphical.target</text>
  <rect class="activating" x="1713.481" y="2940.000" width="2.418" height="19.000" />
  <rect class="active" x="1715.899" y="2940.000" width="0.000" height="19.000" />
  <rect class="deactivating" x="1715.899" y="2940.000" width="0.000" height="19.000" />
  <text class="right" x="1708.481" y="2954.000">systemd-update-utmp-runlevel.service (24ms)</text>
</g>
<g transform="translate(20,100)">
  <rect class="activating" x="0.000" y="2980.000" width="30.000" height="19.000" />
  <text class="left" x="45.000" y="2994.000">Activating</text>
  <rect class="active" x="0.000" y="3000.000" width="30.000" height="19.000" />
  <text class="left" x="45.000" y="3014.000">Active</text>
  <rect class="deactivating" x="0.000" y="3020.000" width="30.000" height="19.000" />
  <text class="left" x="45.000" y="3034.000">Deactivating</text>
  <rect class="security" x="0.000" y="3040.000" width="30.000" height="19.000" />
  <text class="left" x="45.000" y="3054.000">Setting up security module</text>
  <rect class="generators" x="0.000" y="3060.000" width="30.000" height="19.000" />
  <text class="left" x="45.000" y="3074.000">Generators</text>
  <rect class="unitsload" x="0.000" y="3080.000" width="30.000" height="19.000" />
  <text class="left" x="45.000" y="3094.000">Loading unit files</text>
</g>

</svg>
