"Dstat 0.7.3 CSV output"
"Author:","Dag Wieers <dag@wieers.com>",,,,"URL:","http://dag.wieers.com/home-made/dstat/"
"Host:","taurus-4.lyon.grid5000.fr",,,,"User:","root"
"Cmdline:","dstat -Tcdm --output /root/dstat.csv",,,,"Date:","17 Feb 2021 16:56:16 CET"
"epoch","total cpu usage",,,,,"dsk/total",,"memory usage",,,
"epoch","usr","sys","idl","wai","stl","read","writ","used","free","buff","cach"
1613577376.883,1.602,4.595,89.274,4.529,0,8851072.510,2447.809,384090112,33233739776,5992448,38400000
1613577377.884,1.851,12.139,69.608,16.401,0,18392064,4096,411590656,33184022528,8359936,52113408
1613577378.884,0.675,0.211,96.837,2.278,0,8093696,0,423596032,33162227712,9256960,59744256
1613577379.884,0.084,0.084,99.831,0,0,0,0,421752832,33164050432,9256960,59674624
1613577380.884,0.209,0.209,99.415,0.167,0,2617344,405504,476745728,33105747968,9289728,62291968
1613577381.884,0,0,100,0,0,0,139264,476217344,33106272256,9297920,62287872
1613577382.884,0,0,100,0,0,0,0,475959296,33106513920,9297920,62296064
1613577383.884,0.042,0,99.958,0,0,0,208896,475004928,33107451904,9310208,62296064
1613577384.884,0,0.543,99.457,0,0,0,0,351326208,33231130624,9310208,62296064
1613577385.884,0,0.042,99.958,0,0,0,0,347795456,33234661376,9310208,62296064
1613577386.884,0.125,0.042,99.833,0,0,0,0,348233728,33234223104,9310208,62296064
1613577387.884,0,0.042,99.958,0,0,0,16384,347815936,33234620416,9318400,62300160
1613577388.884,0.335,0.544,97.698,1.423,0,5206016,126976,347762688,33229352960,9449472,66609152
1613577389.910,0.163,0.285,99.389,0.163,0,974848,0,367845376,33206042624,9580544,68677632
1613577390.909,0.125,0.083,99.792,0,0,8192,0,368345088,33205174272,9580544,68685824
1613577391.907,0,0,100,0,0,0,0,368345088,33205174272,9580544,68685824
1613577392.891,0.085,0,99.915,0,0,0,0,368345088,33205174272,9580544,68685824
1613577393.901,0,0.041,99.959,0,0,0,0,368087040,33205432320,9580544,68685824
1613577394.896,0.042,0,99.958,0,0,0,167936,368054272,33205432320,9601024,68689920
1613577395.897,0,0,100,0,0,0,0,368054272,33205432320,9601024,68689920
1613577396.888,0,0,100,0,0,0,0,367788032,33205698560,9601024,68689920
1613577397.894,0,0,100,0,0,0,0,367812608,33205673984,9601024,68689920
1613577398.893,0,0.042,99.958,0,0,0,0,368070656,33205415936,9601024,68689920
1613577399.892,0.083,0.083,99.833,0,0,0,16384,367288320,33206190080,9609216,68689920
1613577400.886,0,0,100,0,0,0,0,367030272,33206439936,9609216,68689920
1613577401.890,0,0,100,0,0,0,0,367030272,33206439936,9609216,68689920
1613577402.889,0,0,100,0,0,0,0,367030272,33206439936,9609216,68689920
1613577403.889,0.042,0,99.958,0,0,0,0,367030272,33206439936,9609216,68689920
1613577404.885,0,0,100,0,0,0,0,367030272,33206439936,9609216,68689920
1613577405.888,0.083,0.042,99.875,0,0,0,16384,366505984,33206956032,9617408,68689920
1613577406.887,0,0,100,0,0,0,0,366247936,33207214080,9617408,68689920
1613577407.887,0,0,100,0,0,0,0,365989888,33207472128,9617408,68689920
1613577408.885,0,0,100,0,0,0,0,365989888,33207472128,9617408,68689920
1613577409.886,0,0.042,99.958,0,0,0,0,365727744,33207730176,9617408,68689920
1613577410.885,0.042,0,99.958,0,0,0,16384,365719552,33207721984,9625600,68689920
1613577411.886,0,0,100,0,0,0,36864,365264896,33208172544,9625600,68689920
1613577412.884,0.083,0.083,99.833,0,0,0,0,364998656,33208430592,9625600,68694016
1613577413.885,0,0,100,0,0,0,0,364998656,33208430592,9625600,68694016
1613577414.885,0,0,100,0,0,0,0,364740608,33208688640,9625600,68694016
1613577415.885,0.042,0,99.958,0,0,0,36864,364474368,33208946688,9633792,68694016
1613577416.884,0,0,100,0,0,0,417792,364474368,33208946688,9633792,68694016
1613577417.885,0,0,100,0,0,0,0,364216320,33209204736,9633792,68694016
1613577418.885,0.083,0,99.917,0,0,0,0,363958272,33209462784,9633792,68694016
1613577419.885,0,0,100,0,0,0,0,363958272,33209462784,9633792,68694016
1613577420.884,0,0.042,99.958,0,0,0,0,363958272,33209462784,9633792,68694016
1613577421.884,0,0,100,0,0,0,45056,363458560,33209954304,9641984,68694016
1613577422.884,0,0,100,0,0,0,0,363245568,33210167296,9641984,68694016
1613577423.884,0,0,100,0,0,0,0,363487232,33209921536,9641984,68698112
1613577424.884,0.042,0.042,99.917,0,0,0,0,362962944,33210437632,9641984,68702208
1613577425.884,0.083,0,99.917,0,0,0,0,362962944,33210437632,9641984,68702208
1613577426.884,0,0,100,0,0,0,16384,362696704,33210695680,9650176,68702208
1613577427.884,0,0.042,99.958,0,0,0,0,362696704,33210695680,9650176,68702208
1613577428.884,0,0,100,0,0,0,0,362438656,33210953728,9650176,68702208
1613577429.884,0,0,100,0,0,0,0,362438656,33210953728,9650176,68702208
1613577430.884,0,0.042,99.958,0,0,0,0,362438656,33210953728,9650176,68702208
1613577431.884,0.083,0,99.917,0,0,0,16384,361922560,33211469824,9658368,68694016
1613577432.884,0,0.042,99.958,0,0,0,0,361914368,33211469824,9658368,68702208
1613577433.884,0,0,100,0,0,0,0,361914368,33211469824,9658368,68702208
1613577434.884,0,0,100,0,0,0,0,361914368,33211469824,9658368,68702208
1613577435.884,0,0,100,0,0,0,0,361656320,33211727872,9658368,68702208
1613577436.884,0,0.042,99.958,0,0,0,0,361656320,33211727872,9658368,68702208
1613577437.884,0.042,0,99.958,0,0,0,16384,361648128,33211727872,9666560,68702208
1613577438.884,0.042,0.042,99.917,0,0,0,0,361648128,33211727872,9666560,68702208
1613577439.884,0,0,99.958,0.042,0,0,0,361648128,33211727872,9666560,68702208
1613577440.884,0,0,100,0,0,0,0,361648128,33211727872,9666560,68702208
1613577441.884,0,0,100,0,0,0,0,361644032,33211727872,9666560,68706304
1613577442.884,0,0.042,99.958,0,0,0,16384,361377792,33211985920,9674752,68706304
1613577443.884,0,0,100,0,0,0,0,361377792,33211985920,9674752,68706304
1613577444.884,0.125,0.083,99.792,0,0,0,0,361377792,33211985920,9674752,68706304
1613577445.884,0,0,100,0,0,0,0,361377792,33211985920,9674752,68706304
1613577446.884,0,0,100,0,0,0,28672,361377792,33211985920,9674752,68706304
1613577447.884,0,0,100,0,0,0,36864,360968192,33212387328,9682944,68706304
1613577448.884,0,0,100,0,0,0,0,360968192,33212387328,9682944,68706304
1613577449.884,0,0,100,0,0,0,0,360968192,33212387328,9682944,68706304
1613577450.884,0.125,0.042,99.833,0,0,0,0,360968192,33212387328,9682944,68706304
1613577451.884,0,0.042,99.958,0,0,0,0,360816640,33212538880,9682944,68706304
1613577452.884,0,0,100,0,0,0,24576,360550400,33212796928,9682944,68710400
1613577453.884,0,0,100,0,0,0,16384,360542208,33212796928,9691136,68710400
