timestamp;Inlet Temp;Exhaust Temp;Temp;Temp
1613577379.8368688;22.0;27.0;45.0;35.0
1613577385.8432007;22.0;27.0;44.0;35.0
1613577392.4658246;22.0;27.0;43.0;34.0
1613577398.9730997;22.0;27.0;43.0;34.0
1613577405.4367626;22.0;27.0;43.0;34.0
1613577411.7718048;22.0;27.0;42.0;34.0
1613577418.0946145;22.0;27.0;42.0;33.0
1613577424.4958417;22.0;27.0;42.0;34.0
1613577431.318401;22.0;27.0;42.0;33.0
1613577437.6753166;22.0;27.0;41.0;33.0
1613577444.0177002;22.0;27.0;41.0;33.0
1613577450.4662433;22.0;27.0;41.0;34.0
