"Dstat 0.7.3 CSV output"
"Author:","Dag Wieers <dag@wieers.com>",,,,"URL:","http://dag.wieers.com/home-made/dstat/"
"Host:","taurus-6.lyon.grid5000.fr",,,,"User:","root"
"Cmdline:","dstat -Tcdm --output /root/dstat.csv",,,,"Date:","28 Jan 2021 14:40:04 CET"
"epoch","total cpu usage",,,,,"dsk/total",,"memory usage",,,
"epoch","usr","sys","idl","wai","stl","read","writ","used","free","buff","cach"
1611841204.297,1.559,5.102,86.514,6.825,0,9504974.679,3006.239,487944192,33125736448,7118848,39837696
1611841205.298,1.797,7.318,84.137,6.748,0,6553600,0,456990720,33142235136,7888896,48447488
1611841206.298,0,0,100,0,0,0,0,455974912,33143250944,7888896,48447488
1611841207.298,0,0,99.958,0.042,0,0,0,452829184,33146396672,7888896,48447488
1611841208.298,0.167,0.209,99.122,0.501,0,3936256,389120,508354560,33086218240,7938048,52387840
1611841209.298,0,0,99.958,0.042,0,0,131072,508088320,33086476288,7946240,52387840
1611841210.298,0,0,100,0,0,0,208896,508059648,33086476288,7958528,52387840
1611841211.298,0,0.042,99.958,0,0,0,0,507322368,33087246336,7958528,52387840
1611841212.298,0.125,0.708,99.167,0,0,0,0,333828096,33260740608,7958528,52387840
1611841213.298,0,0,100,0,0,0,0,333803520,33260765184,7958528,52387840
1611841214.298,0.334,0.293,99.122,0.251,0,1462272,122880,331108352,33261547520,8048640,53682176
1611841215.310,0.207,0.537,98.348,0.909,0,4947968,0,353292288,33232728064,8220672,59006976
1611841216.331,0.041,0.041,99.918,0,0,0,0,353042432,33232977920,8220672,59006976
1611841217.333,0,0,99.958,0.042,0,0,0,352526336,33233494016,8220672,59006976
1611841218.328,0,0,100,0,0,0,0,352526336,33233494016,8220672,59006976
1611841219.325,0,0,100,0,0,0,0,352526336,33233494016,8220672,59006976
1611841220.317,0,0,100,0,0,0,163840,352260096,33233752064,8241152,58994688
1611841221.307,0,0,100,0,0,0,0,352247808,33233743872,8241152,59006976
1611841222.317,0,0.041,99.959,0,0,0,0,352239616,33233743872,8241152,59011072
1611841223.314,0,0,99.958,0.042,0,0,0,351981568,33234001920,8241152,59011072
1611841224.309,0.042,0,99.958,0,0,0,0,351973376,33234010112,8241152,59011072
1611841225.310,0,0,100,0,0,0,16384,351707136,33234268160,8249344,59011072
1611841226.309,0,0,100,0,0,0,0,351449088,33234526208,8249344,59011072
1611841227.308,0,0,100,0,0,0,0,351191040,33234784256,8249344,59011072
1611841228.305,0,0.042,99.958,0,0,0,0,351191040,33234784256,8249344,59011072
1611841229.305,0,0,99.958,0.042,0,0,0,350932992,33235042304,8249344,59011072
1611841230.305,0,0,100,0,0,0,0,350932992,33235042304,8249344,59011072
1611841231.299,0.042,0,99.958,0,0,0,16384,350150656,33235816448,8257536,59011072
1611841232.302,0,0,100,0,0,0,0,349892608,33236074496,8257536,59011072
1611841233.300,0,0,100,0,0,0,0,349376512,33236590592,8257536,59011072
1611841234.302,0,0,100,0,0,0,0,349376512,33236590592,8257536,59011072
1611841235.301,0,0.042,99.958,0,0,0,0,349372416,33236590592,8257536,59015168
1611841236.300,0,0,100,0,0,0,0,349372416,33236590592,8257536,59015168
1611841237.301,0,0,99.958,0.042,0,0,16384,349364224,33236590592,8265728,59015168
1611841238.300,0,0,100,0,0,0,0,349106176,33236848640,8265728,59015168
1611841239.300,0,0,100,0,0,0,40960,348848128,33237106688,8269824,59011072
1611841240.300,0,0,100,0,0,0,0,348905472,33237041152,8269824,59015168
1611841241.300,0,0,100,0,0,0,0,348905472,33237041152,8269824,59015168
1611841242.300,0,0,100,0,0,0,45056,348897280,33237041152,8278016,59015168
1611841243.299,0,0,100,0,0,0,0,348123136,33237815296,8278016,59015168
1611841244.299,0,0.042,99.958,0,0,0,417792,347660288,33238278144,8278016,59015168
1611841245.299,0.042,0,99.917,0.042,0,0,0,347578368,33238360064,8278016,59015168
1611841246.299,0,0,100,0,0,0,0,347578368,33238360064,8278016,59015168
1611841247.299,0.042,0,99.958,0,0,0,16384,347652096,33238278144,8286208,59015168
1611841248.299,0,0,100,0,0,0,0,347652096,33238278144,8286208,59015168
1611841249.299,0,0,100,0,0,0,12288,347934720,33237987328,8286208,59015168
1611841250.299,0,0,100,0,0,0,0,347824128,33238097920,8286208,59015168
1611841251.299,0.042,0,99.958,0,0,0,0,347820032,33238097920,8286208,59019264
1611841252.299,0,0,100,0,0,0,20480,347758592,33238151168,8294400,59019264
1611841253.299,0,0,99.958,0.042,0,0,0,347754496,33238151168,8294400,59023360
1611841254.299,0.042,0,99.958,0,0,0,0,347496448,33238409216,8294400,59023360
1611841255.299,0,0.042,99.958,0,0,0,0,346980352,33238925312,8294400,59023360
1611841256.299,0,0,100,0,0,0,0,346910720,33238994944,8294400,59023360
1611841257.298,0,0,100,0,0,0,16384,346800128,33239097344,8302592,59023360
1611841258.299,0,0,100,0,0,0,0,346800128,33239097344,8302592,59023360
1611841259.299,0.042,0,99.917,0.042,0,0,0,346542080,33239355392,8302592,59023360
1611841260.299,0,0,100,0,0,0,0,346542080,33239355392,8302592,59023360
1611841261.299,0.042,0,99.958,0,0,0,0,346542080,33239355392,8302592,59023360
1611841262.299,0,0.042,99.958,0,0,0,16384,346472448,33239416832,8310784,59023360
1611841263.299,0,0,99.958,0.042,0,0,0,346214400,33239674880,8310784,59023360
1611841264.299,0,0,100,0,0,0,0,346210304,33239674880,8310784,59027456
1611841265.299,0,0,100,0,0,0,0,346140672,33239744512,8310784,59027456
1611841266.299,0.042,0,99.958,0,0,0,0,346140672,33239744512,8310784,59027456
1611841267.299,0,0,100,0,0,0,16384,346132480,33239744512,8318976,59027456
1611841268.298,0.042,0,99.958,0,0,0,0,346132480,33239744512,8318976,59027456
1611841269.298,0,0,100,0,0,0,0,346132480,33239744512,8318976,59027456
1611841270.298,0,0,100,0,0,0,0,346132480,33239744512,8318976,59027456
1611841271.298,0.042,0,99.917,0.042,0,0,0,346071040,33239805952,8318976,59027456
1611841272.298,0,0,100,0,0,0,16384,345804800,33240064000,8327168,59027456
1611841273.298,0.042,0,99.958,0,0,0,0,345804800,33240064000,8327168,59027456
1611841274.298,0,0,100,0,0,0,0,345804800,33240064000,8327168,59027456
1611841275.298,0,0,100,0,0,0,24576,345829376,33240031232,8327168,59027456
1611841276.298,0.042,0,99.958,0,0,0,0,345829376,33240031232,8327168,59027456
1611841277.298,0,0.042,99.958,0,0,0,36864,345755648,33240096768,8335360,59027456
1611841278.298,0,0,100,0,0,0,0,345755648,33240096768,8335360,59027456
1611841279.298,0.042,0,99.917,0.042,0,0,0,345497600,33240354816,8335360,59027456
1611841280.298,0,0,100,0,0,0,24576,345493504,33240354816,8335360,59031552
1611841281.298,0,0,100,0,0,0,0,345493504,33240354816,8335360,59031552
1611841282.298,0.042,0,99.958,0,0,0,16384,345485312,33240354816,8343552,59031552
1611841283.298,0,0,100,0,0,0,0,345485312,33240354816,8343552,59031552
1611841284.298,0.042,0,99.958,0,0,0,0,345485312,33240354816,8343552,59031552
1611841285.298,0,0,99.958,0.042,0,0,0,345743360,33240096768,8343552,59031552
1611841286.298,0,0,100,0,0,0,0,345681920,33240158208,8343552,59031552
1611841287.298,0.042,0,99.958,0,0,0,16384,345157632,33240674304,8351744,59031552
1611841288.298,0,0,100,0,0,0,0,345157632,33240674304,8351744,59031552
1611841289.298,0.042,0,99.958,0,0,0,0,345157632,33240674304,8351744,59031552
1611841290.298,0,0,100,0,0,0,0,345157632,33240674304,8351744,59031552
1611841291.298,0,0,99.958,0.042,0,0,0,345157632,33240674304,8351744,59031552
1611841292.298,0.042,0,99.958,0,0,0,16384,345149440,33240674304,8359936,59031552
1611841293.298,0,0,100,0,0,0,0,345145344,33240674304,8359936,59035648
1611841294.298,0.042,0,99.958,0,0,0,0,345145344,33240674304,8359936,59035648
1611841295.298,0,0,100,0,0,0,0,345092096,33240727552,8359936,59035648
1611841296.298,0,0,100,0,0,0,0,345092096,33240727552,8359936,59035648
1611841297.298,0.042,0,99.958,0,0,0,16384,345083904,33240727552,8368128,59035648
1611841298.298,0,0,99.958,0.042,0,0,0,345083904,33240727552,8368128,59035648
1611841299.298,0.042,0,99.958,0,0,0,0,345083904,33240727552,8368128,59035648
1611841300.298,0,0,100,0,0,0,0,345083904,33240727552,8368128,59035648
1611841301.298,0,0,100,0,0,0,0,345083904,33240727552,8368128,59035648
